# This file uses meters as units for non-parametric coordinates.

mtllib cooler.mtl
g default
v -29.975504 36.391808 38.910622
v -31.805347 36.391808 38.152676
v -32.563293 36.391808 36.322830
v -33.430016 39.626465 37.189552
v -32.672070 39.626465 39.019398
v -30.842228 39.626465 39.777344
v 28.681786 39.626465 39.777344
v 30.511629 39.626465 39.019398
v 31.269575 39.626465 37.189552
v 27.815062 36.391808 38.910622
v 29.644905 36.391808 38.152676
v 30.402851 36.391808 36.322830
v -27.607569 34.023872 36.542690
v -29.437414 34.023872 35.784744
v -30.195360 34.023872 33.954899
v 25.447126 34.023872 36.542690
v 27.276972 34.023872 35.784744
v 28.034918 34.023872 33.954899
v -24.372915 33.157139 33.308033
v -26.202757 33.157139 32.550087
v -26.960705 33.157139 30.720240
v 24.800262 33.157139 30.720240
v 24.042315 33.157139 32.550087
v 22.212473 33.157139 33.308033
v -27.607569 95.662842 36.542690
v -29.437414 95.662842 35.784744
v -30.195360 95.662842 33.954899
v -24.372915 96.529556 33.308033
v -26.960705 96.529556 30.720240
v -26.202757 96.529556 32.550087
v 24.800262 96.529556 30.720240
v 22.212473 96.529556 33.308033
v 24.042315 96.529556 32.550087
v 25.447126 95.662842 36.542690
v 27.276972 95.662842 35.784744
v 28.034918 95.662842 33.954899
v -29.975504 93.294899 38.910622
v -31.805347 93.294899 38.152676
v -32.563293 93.294899 36.322830
v 27.815062 93.294899 38.910622
v 29.644905 93.294899 38.152676
v 30.402851 93.294899 36.322830
v -30.842228 90.060242 39.777344
v -32.672070 90.060242 39.019398
v -33.430016 90.060242 37.189552
v 31.269575 90.060242 37.189552
v 30.511629 90.060242 39.019398
v 28.681786 90.060242 39.777344
v 22.212473 96.529556 -36.462887
v 24.800262 96.529556 -33.875095
v 24.042315 96.529556 -35.704941
v 28.034918 95.662842 -37.109753
v 27.276972 95.662842 -38.939598
v 25.447126 95.662842 -39.697544
v 30.402851 93.294899 -39.477684
v 29.644905 93.294899 -41.307529
v 27.815062 93.294899 -42.065475
v 28.681786 90.060242 -42.932198
v 30.511629 90.060242 -42.174252
v 31.269575 90.060242 -40.344406
v -32.563293 93.294899 -39.477684
v -31.805347 93.294899 -41.307529
v -29.975504 93.294899 -42.065475
v -33.430016 90.060242 -40.344406
v -32.672070 90.060242 -42.174252
v -30.842228 90.060242 -42.932198
v -30.195360 95.662842 -37.109753
v -29.437414 95.662842 -38.939598
v -27.607569 95.662842 -39.697544
v -24.372915 96.529556 -36.462887
v -26.202757 96.529556 -35.704941
v -26.960705 96.529556 -33.875095
v -27.607569 34.023872 -39.697544
v -29.437414 34.023872 -38.939598
v -30.195360 34.023872 -37.109753
v -24.372915 33.157139 -36.462887
v -26.960705 33.157139 -33.875095
v -26.202757 33.157139 -35.704941
v 22.212473 33.157139 -36.462887
v 24.042315 33.157139 -35.704941
v 24.800262 33.157139 -33.875095
v 25.447126 34.023872 -39.697544
v 27.276972 34.023872 -38.939598
v 28.034918 34.023872 -37.109753
v -29.975504 36.391808 -42.065475
v -31.805347 36.391808 -41.307529
v -32.563293 36.391808 -39.477684
v 27.815062 36.391808 -42.065475
v 29.644905 36.391808 -41.307529
v 30.402851 36.391808 -39.477684
v -30.842228 39.626465 -42.932198
v -32.672070 39.626465 -42.174252
v -33.430016 39.626465 -40.344406
v 31.269575 39.626465 -40.344406
v 30.511629 39.626465 -42.174252
v 28.681786 39.626465 -42.932198
v -33.430016 81.709000 37.189552
v -33.430016 81.709000 -40.344406
v -32.672070 81.709000 -42.174252
v -30.842230 81.709000 -42.932198
v 28.681786 81.709000 -42.932198
v 30.511629 81.709000 -42.174252
v 31.269575 81.709000 -40.344406
v 31.269575 81.709000 37.189552
v 30.511627 81.709000 39.019398
v 28.681787 81.709000 39.777344
v -30.842228 81.709000 39.777344
v -32.672070 81.709000 39.019398
v -33.430016 83.508835 37.189552
v -33.430016 83.508835 -40.344406
v -32.672070 83.508835 -42.174252
v -30.842230 83.508835 -42.932198
v 28.681784 83.508835 -42.932198
v 30.511629 83.508835 -42.174252
v 31.269575 83.508835 -40.344406
v 31.269575 83.508835 37.189552
v 30.511627 83.508835 39.019398
v 28.681787 83.508835 39.777344
v -30.842226 83.508835 39.777344
v -32.672070 83.508835 39.019398
v -30.195036 81.861862 33.312855
v -30.195036 81.861862 -36.467709
v -30.195036 83.355965 33.312855
v -30.195036 83.355965 -36.467709
v -29.512886 83.355965 -38.114567
v -29.512886 81.861862 -38.114567
v -27.866028 83.355965 -38.796719
v -27.866028 81.861862 -38.796719
v 25.705580 83.355965 -38.796719
v 25.705584 81.861862 -38.796719
v 27.352444 83.355965 -38.114567
v 27.352444 81.861862 -38.114567
v 28.034594 83.355965 -36.467709
v 28.034594 81.861862 -36.467709
v 28.034594 81.861862 33.312855
v 28.034594 83.355965 33.312855
v 27.352440 81.861862 34.959713
v 27.352440 83.355965 34.959713
v 25.705585 81.861862 35.641865
v 25.705585 83.355965 35.641865
v -27.866026 81.861862 35.641865
v -27.866022 83.355965 35.641865
v -29.512882 81.861862 34.959713
v -29.512882 83.355965 34.959713
v -58.471771 99.227989 -24.913097
v -55.459976 104.099281 -24.913097
v -46.057602 91.575676 -44.112068
v -3.594543 64.610237 -43.578915
v -43.066452 96.413513 -44.112068
v 0.033035 70.477463 -43.578918
v -55.262135 103.893333 -31.200022
v -58.199154 99.143044 -31.200020
v -54.222984 103.153099 -36.860016
v -57.072544 98.544243 -36.860012
v -52.014587 101.638840 -41.017574
v -54.730988 97.245369 -41.017574
v -48.348965 99.464096 -43.425957
v -51.147320 94.938049 -43.425953
v -58.493076 99.223282 1.864735
v -55.465279 104.120445 1.864735
v -58.471771 99.227989 21.758255
v -55.459976 104.099281 21.758247
v -46.057602 91.575676 40.957214
v -3.594543 64.610237 40.424057
v -43.066452 96.413513 40.957207
v 0.033035 70.477463 40.424057
v -55.262135 103.893333 28.045151
v -58.199154 99.143044 28.045151
v -54.222980 103.153107 33.705162
v -57.072544 98.544243 33.705154
v -52.014587 101.638855 37.862717
v -54.730988 97.245369 37.862717
v -48.348972 99.464081 40.271111
v -51.147320 94.938049 40.271095
v -42.514133 97.242340 -45.362602
v -42.369854 97.385048 -47.119728
v -43.135262 96.098587 -48.059998
v 1.969864 68.785034 -48.059998
v 2.358551 70.321846 -47.216587
v 1.519165 70.828003 -45.485683
v -45.806618 91.777954 -48.059998
v -46.615395 90.518341 -47.119728
v -46.552227 90.711174 -45.362602
v -3.243988 63.124096 -45.485687
v -2.416061 62.599407 -47.216587
v -1.214951 63.633923 -48.059998
v -61.650368 101.553398 -24.865780
v -61.638237 99.794189 -24.850079
v -60.048431 99.040848 -24.820732
v -59.830425 98.943413 -31.239973
v -61.433411 99.697929 -31.294809
v -61.446800 101.470184 -31.324198
v -55.997154 105.593353 -24.820740
v -57.381546 106.678894 -24.850082
v -58.960747 105.903595 -24.865784
v -58.795311 105.758659 -31.324198
v -57.203926 106.538696 -31.294809
v -55.812569 105.441879 -31.239975
v -58.590599 98.292015 -37.275505
v -60.145195 98.976913 -37.878887
v -60.129551 100.728004 -38.204369
v -57.542702 104.911957 -38.204369
v -55.983192 105.708511 -37.878887
v -54.675762 104.623848 -37.275509
v -55.874470 96.751541 -41.991375
v -56.932930 97.088730 -43.463326
v -56.638241 98.678375 -44.262821
v -54.148888 102.704643 -44.262821
v -52.858513 103.678673 -43.463326
v -52.083843 102.882477 -41.991375
v -51.778809 94.093040 -44.715645
v -52.011711 93.964592 -46.531311
v -51.269928 95.297874 -47.507824
v -48.725662 99.412956 -47.507824
v -47.864422 100.672394 -46.531311
v -47.875244 100.406639 -44.715641
v -55.996284 105.595299 1.864735
v -57.380932 106.680298 1.864735
v -58.959938 105.904884 1.864735
v -61.651176 101.552094 1.864735
v -61.639198 99.793037 1.864735
v -60.049789 99.039200 1.864735
v -43.135262 96.098587 44.905136
v -42.369854 97.385048 43.964867
v -42.514133 97.242340 42.207741
v 1.969864 68.785034 44.905136
v 1.519165 70.828003 42.330826
v 2.358551 70.321846 44.061722
v -46.552223 90.711174 42.207741
v -46.615391 90.518349 43.964867
v -45.806618 91.777962 44.905136
v -3.243988 63.124096 42.330826
v -1.214951 63.633923 44.905136
v -2.416061 62.599407 44.061722
v -51.778809 94.093040 41.560791
v -52.011711 93.964592 43.376450
v -51.269928 95.297874 44.352966
v -48.725666 99.412949 44.352966
v -47.864429 100.672379 43.376450
v -47.875244 100.406609 41.560783
v -60.048431 99.040840 21.665886
v -61.638237 99.794189 21.695229
v -61.650368 101.553398 21.710930
v -61.446800 101.470161 28.169334
v -61.433418 99.697922 28.139946
v -59.830425 98.943413 28.085106
v -58.960747 105.903595 21.710922
v -57.381546 106.678925 21.695221
v -55.997154 105.593361 21.665878
v -55.812569 105.441879 28.085114
v -57.203926 106.538696 28.139954
v -58.795311 105.758659 28.169342
v -60.129551 100.728004 35.049515
v -60.145195 98.976913 34.724030
v -58.590599 98.292015 34.120651
v -54.675758 104.623856 34.120651
v -55.983192 105.708511 34.724030
v -57.542694 104.911957 35.049515
v -56.638241 98.678375 41.107971
v -56.932945 97.088737 40.308472
v -55.874477 96.751541 38.836525
v -52.083847 102.882507 38.836525
v -52.858505 103.678680 40.308472
v -54.148876 102.704636 41.107971
v -0.810961 67.984070 46.638165
v 5.901895 74.696922 44.884186
v 5.508704 74.303734 46.124435
v 4.559459 73.354485 46.638165
v -0.810961 77.477478 44.884186
v -0.810961 76.921425 46.124435
v -0.810961 75.578987 46.638165
v -7.523817 74.696922 44.884186
v -7.130627 74.303734 46.124435
v -6.181381 73.354485 46.638165
v -10.304372 67.984070 44.884186
v -9.748317 67.984070 46.124435
v -8.405881 67.984070 46.638165
v -7.523817 61.271210 44.884186
v -7.130627 61.664410 46.124435
v -6.181380 62.613651 46.638165
v -0.810961 58.490658 44.884186
v -0.810961 59.046715 46.124435
v -0.810961 60.389149 46.638165
v 5.901896 61.271210 44.884186
v 5.508705 61.664410 46.124435
v 4.559460 62.613651 46.638165
v 8.682457 67.984070 44.884186
v 8.126399 67.984070 46.124435
v 6.783961 67.984070 46.638165
v -0.810961 67.984070 -51.033230
v 5.901895 74.696922 -49.279255
v 5.508704 74.303734 -50.519505
v 4.559459 73.354485 -51.033230
v -0.810961 77.477478 -49.279255
v -0.810961 76.921425 -50.519505
v -0.810961 75.578987 -51.033230
v -7.523817 74.696922 -49.279255
v -7.130627 74.303734 -50.519505
v -6.181381 73.354485 -51.033230
v -10.304372 67.984070 -49.279255
v -9.748317 67.984070 -50.519505
v -8.405881 67.984070 -51.033230
v -7.523817 61.271210 -49.279255
v -7.130627 61.664410 -50.519505
v -6.181380 62.613651 -51.033230
v -0.810961 58.490658 -49.279255
v -0.810961 59.046715 -50.519505
v -0.810961 60.389149 -51.033230
v 5.901896 61.271210 -49.279255
v 5.508705 61.664410 -50.519505
v 4.559460 62.613651 -51.033230
v 8.682457 67.984070 -49.279255
v 8.126399 67.984070 -50.519505
v 6.783961 67.984070 -51.033230
v -0.810961 77.477478 -39.862911
v 5.901895 74.696922 -39.862911
v 8.682457 67.984070 -39.862911
v 5.901896 61.271210 -39.862911
v -0.810961 58.490658 -39.862911
v -7.523817 61.271210 -39.862911
v -10.304372 67.984070 -39.862911
v -7.523817 74.696922 -39.862911
v -0.810961 77.477478 35.467842
v 5.901895 74.696922 35.467842
v 8.682457 67.984070 35.467842
v 5.901896 61.271210 35.467842
v -0.810961 58.490658 35.467842
v -7.523817 61.271210 35.467842
v -10.304372 67.984070 35.467842
v -7.523817 74.696922 35.467842
vt 0.492039 0.054021
vt 0.501270 0.052380
vt 0.505211 0.069394
vt 0.496023 0.069481
vt 0.481296 0.038965
vt 0.490314 0.035651
vt 0.504948 0.264287
vt 0.495848 0.263977
vt 0.137654 0.069288
vt 0.141654 0.053835
vt 0.152593 0.038355
vt 0.137632 0.263729
vt 0.132359 0.052141
vt 0.128465 0.069193
vt 0.143482 0.035055
vt 0.128536 0.264027
vt 0.218443 0.624780
vt 0.205752 0.629092
vt 0.204115 0.609321
vt 0.214162 0.609221
vt 0.229759 0.640021
vt 0.221510 0.643610
vt 0.204713 0.578616
vt 0.213996 0.578798
vt 0.573271 0.607305
vt 0.569196 0.622846
vt 0.557928 0.638101
vt 0.573146 0.576898
vt 0.580313 0.626810
vt 0.583132 0.607562
vt 0.565948 0.641489
vt 0.582474 0.576697
vt 0.525653 0.246682
vt 0.516316 0.248356
vt 0.512484 0.231269
vt 0.521685 0.231200
vt 0.536573 0.262217
vt 0.950097 0.694875
vt 0.513032 0.036204
vt 0.522138 0.036525
vt 0.880438 0.231902
vt 0.876410 0.247372
vt 0.865433 0.262863
vt 0.880700 0.037204
vt 0.889640 0.232007
vt 0.885740 0.249081
vt 0.874517 0.266205
vt 0.889808 0.036915
vt 0.216598 0.940048
vt 0.220623 0.924476
vt 0.571555 0.921441
vt 0.575855 0.936926
vt 0.209447 0.920562
vt 0.206720 0.939828
vt 0.231851 0.909163
vt 0.560063 0.906345
vt 0.582640 0.917314
vt 0.585721 0.936524
vt 0.576164 0.967343
vt 0.216835 0.970479
vt 0.223796 0.905801
vt 0.207497 0.970720
vt 0.568041 0.902841
vt 0.585506 0.967407
vt 0.558391 0.989438
vt 0.234997 0.992260
vt 0.234934 0.985334
vt 0.558332 0.982512
vt 0.226770 0.992407
vt 0.226666 0.985490
vt 0.566615 0.982435
vt 0.566674 0.989377
vt 0.563351 0.561950
vt 0.555111 0.561990
vt 0.555073 0.555070
vt 0.563319 0.555033
vt 0.231844 0.556781
vt 0.231879 0.563701
vt 0.223635 0.556819
vt 0.223655 0.563709
vt 0.453956 0.294696
vt 0.850395 0.278311
vt 0.941942 0.733599
vt 0.926954 0.718104
vt 0.711405 0.717683
vt 0.474770 0.019978
vt 0.466317 0.023460
vt 0.167594 0.022912
vt 0.137898 0.526555
vt 0.710362 0.706672
vt 0.925957 0.706986
vt 0.138223 0.294059
vt 0.551552 0.277723
vt 0.962181 0.747460
vt 0.952851 0.749133
vt 0.696356 0.733106
vt 0.695354 0.691163
vt 0.941012 0.691536
vt 0.685382 0.748596
vt 0.676040 0.746876
vt 0.675053 0.677256
vt 0.684425 0.675605
vt 0.951985 0.676033
vt 0.961320 0.677742
vt 0.238626 0.890569
vt 0.246950 0.893882
vt 0.220239 0.897812
vt 0.235149 0.882271
vt 0.233300 0.666973
vt 0.236655 0.658619
vt 0.244988 0.655154
vt 0.542795 0.653311
vt 0.551109 0.656645
vt 0.554574 0.664919
vt 0.556283 0.879589
vt 0.552987 0.887913
vt 0.544705 0.891349
vt 0.205187 0.909513
vt 0.217936 0.651751
vt 0.569471 0.649471
vt 0.571441 0.894801
vt 0.202472 0.640391
vt 0.584501 0.637853
vt 0.586668 0.906178
vt 0.478010 0.279004
vt 0.155450 0.278777
vt 0.672020 0.959020
vt 0.686083 0.981098
vt 0.146981 0.282162
vt 0.681121 0.958704
vt 0.694670 0.977959
vt 0.680922 0.465365
vt 0.694549 0.446152
vt 0.956303 0.959262
vt 0.942674 0.978465
vt 0.956203 0.465841
vt 0.942642 0.446581
vt 0.871356 0.018733
vt 0.965308 0.465522
vt 0.951239 0.443437
vt 0.862880 0.022118
vt 0.540013 0.021507
vt 0.636458 0.918559
vt 0.655220 0.903684
vt 0.208390 0.974079
vt 0.227333 0.988558
vt 0.632839 0.910064
vt 0.651976 0.896059
vt 0.158981 0.914301
vt 0.139534 0.900624
vt 0.630556 0.633216
vt 0.649908 0.646899
vt 0.156157 0.636656
vt 0.136994 0.650742
vt 0.581620 0.573329
vt 0.562712 0.558774
vt 0.152533 0.628178
vt 0.133738 0.643105
vt 0.681358 0.764059
vt 0.672158 0.763955
vt 0.956811 0.764610
vt 0.966009 0.764540
vt 0.965405 0.959614
vt 0.186778 0.636364
vt 0.186924 0.626542
vt 0.189614 0.913919
vt 0.155933 0.627295
vt 0.190078 0.923857
vt 0.158933 0.923722
vt 0.599601 0.623616
vt 0.600031 0.633511
vt 0.630614 0.623841
vt 0.602282 0.910271
vt 0.602021 0.920198
vt 0.633068 0.919456
vt 0.956007 0.660562
vt 0.965210 0.660664
vt 0.680454 0.660108
vt 0.671249 0.660173
vt 0.671817 0.465014
vt 0.652091 0.904323
vt 0.658923 0.896000
vt 0.659004 0.904243
vt 0.656855 0.646840
vt 0.649797 0.638614
vt 0.656736 0.638533
vt 0.130025 0.650815
vt 0.129942 0.642518
vt 0.136893 0.642434
vt 0.132562 0.900694
vt 0.132598 0.909079
vt 0.139617 0.909030
vt 0.685963 0.442978
vt 0.531541 0.018080
vt 0.951254 0.981647
vt 0.486481 0.282415
vt 0.155549 0.922877
vt 0.136428 0.908354
vt 0.205506 0.575326
vt 0.224239 0.560585
vt 0.634010 0.624674
vt 0.653011 0.639221
vt 0.584700 0.970770
vt 0.566006 0.985611
vt 0.701908 0.710169
vt 0.159148 0.019397
vt 0.702958 0.714176
vt 0.453521 0.527136
vt 0.543094 0.281206
vt 0.934404 0.710494
vt 0.935399 0.714611
vt 0.858827 0.281842
vt 0.527475 0.265513
vt 0.687286 0.729720
vt 0.686250 0.694503
vt 0.951036 0.730301
vt 0.044333 0.250432
vt 0.044333 0.056431
vt 0.069560 0.056431
vt 0.069560 0.250432
vt 0.069560 0.277262
vt 0.044333 0.277262
vt 0.069560 0.400788
vt 0.044333 0.400788
vt 0.044333 0.367425
vt 0.069560 0.367425
vt 0.044333 0.334401
vt 0.069560 0.334401
vt 0.044333 0.303469
vt 0.069560 0.303469
vt 0.069560 0.540488
vt 0.044333 0.540488
vt 0.044333 0.772098
vt 0.069560 0.772098
vt 0.069560 0.961387
vt 0.044333 0.961387
vt 0.069560 0.750520
vt 0.044333 0.750520
vt 0.069560 0.644175
vt 0.069560 0.677816
vt 0.044333 0.677815
vt 0.044333 0.644175
vt 0.069560 0.705507
vt 0.044333 0.705507
vt 0.069560 0.729785
vt 0.044333 0.729785
vt 0.091932 0.250432
vt 0.084376 0.250432
vt 0.084376 0.056431
vt 0.091932 0.056431
vt 0.077274 0.250432
vt 0.077274 0.056430
vt 0.037251 0.250432
vt 0.029710 0.250432
vt 0.029710 0.056430
vt 0.037251 0.056430
vt 0.121209 0.250432
vt 0.113519 0.250432
vt 0.113519 0.056430
vt 0.121209 0.056431
vt 0.037251 0.400788
vt 0.029710 0.400788
vt 0.029710 0.367425
vt 0.037251 0.367425
vt 0.121209 0.400788
vt 0.113519 0.400788
vt 0.113519 0.367425
vt 0.121209 0.367425
vt 0.091932 0.400788
vt 0.084376 0.400788
vt 0.084376 0.367425
vt 0.091932 0.367425
vt 0.077274 0.400788
vt 0.077274 0.367425
vt 0.077274 0.772098
vt 0.084376 0.772098
vt 0.084376 0.961387
vt 0.077274 0.961387
vt 0.091932 0.772098
vt 0.091932 0.961387
vt 0.113519 0.772098
vt 0.121209 0.772098
vt 0.121209 0.961387
vt 0.113519 0.961387
vt 0.029710 0.772098
vt 0.037251 0.772098
vt 0.037251 0.961387
vt 0.029710 0.961387
vt 0.113519 0.644175
vt 0.121209 0.644175
vt 0.121209 0.677816
vt 0.113519 0.677815
vt 0.029710 0.644175
vt 0.037251 0.644175
vt 0.037251 0.677815
vt 0.029710 0.677815
vt 0.077274 0.644175
vt 0.084376 0.644175
vt 0.084376 0.677815
vt 0.077274 0.677815
vt 0.091932 0.644175
vt 0.091932 0.677815
vt 0.037251 0.277262
vt 0.113519 0.277262
vt 0.091932 0.277262
vt 0.077274 0.277262
vt 0.037251 0.334401
vt 0.091932 0.334401
vt 0.113519 0.334401
vt 0.077274 0.334401
vt 0.037251 0.303468
vt 0.091932 0.303468
vt 0.113519 0.303468
vt 0.077274 0.303468
vt 0.077274 0.540488
vt 0.113519 0.540488
vt 0.091932 0.540488
vt 0.037251 0.540488
vt 0.037251 0.750520
vt 0.113519 0.750520
vt 0.091932 0.750520
vt 0.077274 0.750520
vt 0.037251 0.705507
vt 0.113519 0.705507
vt 0.091932 0.705507
vt 0.077274 0.705507
vt 0.037251 0.729785
vt 0.113519 0.729785
vt 0.091932 0.729785
vt 0.077274 0.729785
vt 0.121209 0.540488
vt 0.029710 0.540488
vt 0.029710 0.334401
vt 0.121209 0.334401
vt 0.084376 0.540488
vt 0.084376 0.334401
vt 0.029710 0.303468
vt 0.121209 0.303469
vt 0.084376 0.303469
vt 0.029710 0.277262
vt 0.121209 0.277262
vt 0.084376 0.277262
vt 0.084375 0.750520
vt 0.029710 0.750520
vt 0.121209 0.750520
vt 0.121209 0.705507
vt 0.029710 0.705507
vt 0.084376 0.705507
vt 0.121209 0.729785
vt 0.029710 0.729785
vt 0.084375 0.729785
vt 0.718343 0.383600
vt 0.696184 0.391332
vt 0.697121 0.360983
vt 0.675609 0.381598
vt 0.667668 0.360680
vt 0.676250 0.340199
vt 0.696736 0.331208
vt 0.718082 0.339034
vt 0.728131 0.360232
vt 0.726263 0.392934
vt 0.722370 0.388317
vt 0.734325 0.359790
vt 0.740347 0.359326
vt 0.695824 0.397051
vt 0.695459 0.402572
vt 0.671512 0.385365
vt 0.667546 0.388996
vt 0.662192 0.360572
vt 0.656910 0.360460
vt 0.672337 0.336371
vt 0.668553 0.332680
vt 0.696549 0.325650
vt 0.696361 0.320283
vt 0.721901 0.334769
vt 0.725571 0.330637
vt 0.627357 0.402025
vt 0.639157 0.430553
vt 0.602180 0.445850
vt 0.590359 0.417272
vt 0.575179 0.366298
vt 0.603847 0.378173
vt 0.588453 0.415329
vt 0.559790 0.403457
vt 0.513163 0.378376
vt 0.541667 0.366528
vt 0.557077 0.403473
vt 0.528523 0.415318
vt 0.477890 0.430536
vt 0.489628 0.402015
vt 0.526599 0.417240
vt 0.514824 0.445773
vt 0.489769 0.492358
vt 0.477904 0.463877
vt 0.514813 0.448491
vt 0.526653 0.477030
vt 0.541818 0.527694
vt 0.513323 0.515917
vt 0.528574 0.478971
vt 0.557109 0.490799
vt 0.603633 0.515935
vt 0.575139 0.527710
vt 0.559847 0.490806
vt 0.588400 0.479008
vt 0.639065 0.463910
vt 0.627239 0.492378
vt 0.590333 0.477088
vt 0.602171 0.448576
vt 0.590471 0.447192
vt 0.558477 0.447154
vt 0.581106 0.424573
vt 0.558454 0.415185
vt 0.535845 0.424541
vt 0.526512 0.447126
vt 0.535878 0.469727
vt 0.558481 0.479105
vt 0.581097 0.469770
vt 0.585395 0.474070
vt 0.596554 0.447204
vt 0.585418 0.420277
vt 0.558444 0.409096
vt 0.531541 0.420247
vt 0.520436 0.447125
vt 0.531582 0.474025
vt 0.558479 0.485185
vt 0.738740 0.432847
vt 0.707942 0.442472
vt 0.783888 0.377578
vt 0.769809 0.411176
vt 0.762728 0.311496
vt 0.777509 0.340168
vt 0.709755 0.282428
vt 0.738967 0.292763
vt 0.652409 0.296647
vt 0.680226 0.284194
vt 0.621050 0.345372
vt 0.632658 0.317686
vt 0.630471 0.402767
vt 0.619868 0.374180
vt 0.677836 0.438745
vt 0.649936 0.425155
vn -0.903003 -0.429523 0.009820
vn -0.568178 -0.595271 0.568178
vn -0.706889 -0.024852 0.706888
vn -0.999819 -0.016364 0.009722
vn -0.012770 -0.430578 0.902463
vn -0.012576 -0.016404 0.999786
vn 0.600549 -0.799573 0.004869
vn 0.299814 -0.905662 0.299814
vn 0.000805 -0.999999 0.000805
vn 0.206185 -0.978512 0.001152
vn 0.006421 -0.800102 0.599830
vn 0.001562 -0.978468 0.206392
vn -0.600550 0.799573 0.004869
vn -0.299813 0.905662 0.299813
vn -0.000515 1.000000 0.000515
vn -0.013364 0.999911 0.000075
vn -0.006421 0.800102 0.599829
vn -0.000076 0.999950 0.009994
vn 0.903003 0.429523 0.009820
vn 0.568178 0.595271 0.568178
vn 0.702253 0.116969 0.702253
vn 0.996824 0.078962 0.010356
vn 0.012770 0.430579 0.902463
vn 0.013400 0.079175 0.996771
vn 0.012770 0.430579 -0.902463
vn 0.568178 0.595271 -0.568179
vn 0.702253 0.116969 -0.702253
vn 0.013400 0.079175 -0.996771
vn 0.903003 0.429523 -0.009820
vn 0.996824 0.078962 -0.010356
vn -0.006421 0.800102 -0.599829
vn -0.299813 0.905662 -0.299813
vn -0.000515 1.000000 -0.000515
vn -0.000076 0.999950 -0.009994
vn -0.600550 0.799573 -0.004869
vn -0.013364 0.999911 -0.000075
vn -0.600550 -0.799573 -0.004869
vn -0.299814 -0.905662 -0.299814
vn -0.000805 -0.999999 -0.000805
vn -0.206185 -0.978512 -0.001152
vn -0.006421 -0.800102 -0.599830
vn -0.001562 -0.978468 -0.206392
vn 0.903002 -0.429523 -0.009820
vn 0.568178 -0.595271 -0.568178
vn 0.706888 -0.024852 -0.706888
vn 0.999819 -0.016364 -0.009722
vn 0.012770 -0.430578 -0.902463
vn 0.012576 -0.016404 -0.999786
vn 0.012770 -0.430578 0.902463
vn 0.012576 -0.016404 0.999786
vn -0.006421 -0.800102 0.599830
vn -0.001562 -0.978468 0.206392
vn 0.006421 0.800102 0.599829
vn 0.000076 0.999950 0.009994
vn -0.012770 0.430579 0.902463
vn -0.013400 0.079175 0.996771
vn 0.006421 -0.800102 -0.599830
vn 0.001562 -0.978468 -0.206392
vn -0.012770 -0.430578 -0.902463
vn -0.012576 -0.016404 -0.999786
vn 0.012354 0.058538 0.998209
vn -0.012354 0.058538 0.998209
vn -0.012354 0.058538 -0.998209
vn 0.012354 0.058538 -0.998209
vn 0.999819 -0.016364 0.009722
vn 0.999348 0.034825 -0.009572
vn 0.999348 0.034825 0.009572
vn -0.999819 -0.016364 -0.009722
vn -0.999348 0.034825 0.009572
vn -0.999348 0.034825 -0.009572
vn 0.013364 0.999911 0.000075
vn 0.600549 0.799573 0.004869
vn 0.600549 0.799573 -0.004869
vn 0.013364 0.999911 -0.000075
vn -0.996824 0.078961 0.010356
vn -0.903003 0.429522 0.009820
vn -0.903003 0.429522 -0.009820
vn -0.996824 0.078961 -0.010356
vn -0.013400 0.079175 -0.996771
vn -0.012770 0.430579 -0.902463
vn 0.006421 0.800102 -0.599829
vn 0.000076 0.999950 -0.009994
vn -0.206185 -0.978512 0.001152
vn -0.600550 -0.799573 0.004869
vn -0.903003 -0.429523 -0.009820
vn 0.903002 -0.429523 0.009820
vn 0.600549 -0.799573 -0.004869
vn 0.206185 -0.978512 -0.001152
vn 0.000515 1.000000 0.000515
vn 0.000515 1.000000 -0.000515
vn -0.000805 -0.999999 0.000805
vn -0.299814 -0.905662 0.299813
vn 0.706889 -0.024852 0.706888
vn 0.568178 -0.595271 0.568178
vn -0.568178 0.595271 0.568179
vn 0.299813 0.905662 0.299813
vn -0.702253 0.116969 0.702253
vn -0.704386 0.086360 0.704544
vn 0.704386 0.086360 0.704544
vn 0.299813 0.905662 -0.299813
vn -0.568178 0.595271 -0.568178
vn -0.702254 0.116969 -0.702252
vn -0.568178 -0.595271 -0.568178
vn 0.000805 -0.999999 -0.000805
vn 0.299813 -0.905662 -0.299814
vn -0.706889 -0.024852 -0.706888
vn -0.704386 0.086360 -0.704544
vn 0.704386 0.086360 -0.704544
vn -0.313568 0.949562 -0.002760
vn -0.313568 0.949562 0.002761
vn -0.313570 -0.949561 0.002761
vn -0.313570 -0.949561 -0.002761
vn -0.173735 -0.969539 -0.172657
vn -0.173734 0.969539 -0.172655
vn -0.003200 -0.962128 -0.272580
vn -0.003200 0.962128 -0.272578
vn 0.003200 -0.962128 -0.272580
vn 0.003200 0.962129 -0.272578
vn 0.173735 -0.969539 -0.172657
vn 0.173734 0.969539 -0.172659
vn 0.313570 -0.949561 -0.002761
vn 0.313568 0.949562 -0.002761
vn 0.313568 0.949562 0.002761
vn 0.313570 -0.949561 0.002761
vn 0.173734 0.969539 0.172656
vn 0.173735 -0.969539 0.172658
vn 0.003200 0.962128 0.272578
vn 0.003200 -0.962128 0.272580
vn -0.003200 0.962129 0.272577
vn -0.003200 -0.962128 0.272580
vn -0.173734 0.969539 0.172656
vn -0.173735 -0.969539 0.172657
vn -0.976205 -0.216642 -0.009496
vn -0.976205 -0.216642 0.009496
vn -0.619367 -0.481326 -0.620250
vn -0.011710 -0.348948 -0.937069
vn 0.011710 -0.348947 -0.937069
vn 0.619366 -0.481326 -0.620250
vn 0.976205 -0.216642 -0.009496
vn 0.976205 -0.216642 0.009496
vn 0.619366 -0.481326 0.620251
vn 0.011710 -0.348948 0.937069
vn -0.011710 -0.348947 0.937069
vn -0.619367 -0.481326 0.620250
vn -0.110748 -0.177443 0.977880
vn -0.148334 -0.216252 0.965004
vn 0.127166 0.229341 0.965003
vn 0.109245 0.178372 0.977880
vn 0.343032 0.033390 0.938730
vn 0.123430 -0.321793 0.938730
vn 0.931005 -0.364914 0.008210
vn 0.742511 -0.669784 0.008210
vn 0.723737 -0.678982 0.123241
vn 0.930843 -0.344010 0.123241
vn 0.664338 -0.655408 0.359299
vn 0.883209 -0.301406 0.359300
vn 0.460716 -0.536522 0.707025
vn 0.685856 -0.172380 0.707026
vn 0.931506 -0.363727 0.000000
vn 0.741674 -0.670761 0.000000
vn -0.110748 -0.177443 -0.977880
vn 0.109244 0.178372 -0.977880
vn 0.127165 0.229340 -0.965004
vn -0.148335 -0.216252 -0.965004
vn 0.343032 0.033389 -0.938730
vn 0.123431 -0.321793 -0.938730
vn 0.931390 -0.363876 -0.010366
vn 0.930843 -0.344010 -0.123241
vn 0.723737 -0.678982 -0.123241
vn 0.741755 -0.670590 -0.010366
vn 0.883209 -0.301406 -0.359299
vn 0.664337 -0.655408 -0.359299
vn 0.685858 -0.172379 -0.707025
vn 0.460716 -0.536522 -0.707025
vn 0.058050 0.112750 -0.991926
vn 0.452010 0.759349 -0.468055
vn 0.408814 0.678080 -0.610802
vn 0.056011 0.092859 -0.994103
vn 0.488976 0.808734 0.326883
vn 0.500065 0.832173 0.239633
vn -0.504961 -0.798852 0.326879
vn -0.477302 -0.743711 -0.468057
vn -0.423903 -0.668750 -0.610802
vn -0.520974 -0.819247 0.239626
vn -0.074922 -0.102319 -0.991926
vn -0.058040 -0.091605 -0.994103
vn -0.175404 -0.984495 0.001589
vn -0.846061 -0.533074 -0.003755
vn -0.857058 -0.510673 -0.068301
vn -0.190798 -0.980955 0.036378
vn -0.915761 0.401669 -0.006601
vn -0.908408 0.398420 -0.126712
vn -0.768577 0.639723 -0.006601
vn 0.098785 0.995102 -0.003755
vn 0.073828 0.994929 -0.068300
vn -0.762386 0.634596 -0.126712
vn 0.802330 0.596879 0.001589
vn 0.792282 0.609069 0.036379
vn 0.488974 0.808734 -0.326884
vn 0.452008 0.759350 0.468056
vn 0.408813 0.678080 0.610803
vn 0.500063 0.832173 -0.239634
vn 0.058051 0.112751 0.991926
vn 0.056011 0.092860 0.994103
vn -0.074923 -0.102319 0.991926
vn -0.477301 -0.743711 0.468058
vn -0.423902 -0.668750 0.610802
vn -0.058040 -0.091606 0.994103
vn -0.504961 -0.798852 -0.326880
vn -0.520974 -0.819247 -0.239626
vn -0.915787 0.401578 0.008332
vn -0.846073 -0.533045 0.004738
vn -0.857056 -0.510676 0.068302
vn -0.908408 0.398420 0.126713
vn -0.175917 -0.984403 -0.002010
vn -0.190796 -0.980955 -0.036378
vn 0.802019 0.597295 -0.002009
vn 0.098752 0.995101 0.004738
vn 0.073827 0.994929 0.068302
vn 0.792283 0.609069 -0.036378
vn -0.768509 0.639785 0.008332
vn -0.762387 0.634595 0.126713
vn -0.426404 -0.840723 0.333714
vn -0.308029 0.027199 -0.950988
vn -0.161989 0.263402 -0.950988
vn 0.561540 0.757172 0.333712
vn -0.215963 -0.969111 0.119094
vn -0.702837 0.595847 -0.388570
vn -0.847132 0.362466 -0.388570
vn 0.770442 0.626287 0.119097
vn -0.300338 -0.921315 0.246932
vn -0.490296 0.462637 -0.738632
vn -0.632980 0.231860 -0.738632
vn 0.689976 0.680410 0.246931
vn 0.801409 0.598117 -0.000000
vn -0.915872 0.401470 0.000000
vn -0.768449 0.639911 -0.000000
vn -0.176926 -0.984224 -0.000000
vn -0.426404 -0.840723 -0.333713
vn -0.308028 0.027199 0.950989
vn -0.161988 0.263402 0.950989
vn 0.561540 0.757171 -0.333714
vn -0.215962 -0.969112 -0.119094
vn -0.847131 0.362467 0.388569
vn -0.702838 0.595846 0.388570
vn 0.770441 0.626288 -0.119097
vn -0.300339 -0.921315 -0.246932
vn -0.632980 0.231862 0.738632
vn -0.490296 0.462637 0.738632
vn 0.689976 0.680410 -0.246931
vn -0.843417 -0.537259 -0.000000
vn -0.841719 -0.498285 -0.207895
vn 0.103710 0.994608 -0.000000
vn 0.069602 0.975672 -0.207892
vn -0.748418 -0.538928 -0.386557
vn 0.147653 0.910369 -0.386558
vn -0.593250 -0.653050 -0.470724
vn 0.319087 0.822558 -0.470726
vn 0.319087 0.822558 0.470725
vn -0.593249 -0.653050 0.470724
vn -0.841719 -0.498286 0.207895
vn 0.069598 0.975672 0.207894
vn -0.748419 -0.538927 0.386558
vn 0.147651 0.910368 0.386560
vn 0.103695 0.103694 0.989189
vn 0.000000 0.146646 0.989189
vn -0.000000 0.000000 1.000000
vn -0.103695 0.103694 0.989189
vn -0.146646 0.000000 0.989189
vn -0.103694 -0.103694 0.989189
vn -0.000000 -0.146646 0.989189
vn 0.103694 -0.103694 0.989189
vn 0.146646 -0.000000 0.989189
vn 0.706351 0.706352 0.046214
vn 0.527186 0.527185 0.666447
vn 0.745553 0.000000 0.666446
vn 0.998932 0.000000 0.046214
vn 0.000000 0.745552 0.666448
vn 0.000000 0.998932 0.046214
vn -0.527186 0.527185 0.666446
vn -0.706351 0.706351 0.046214
vn -0.745553 0.000000 0.666446
vn -0.998932 0.000000 0.046214
vn -0.527186 -0.527184 0.666447
vn -0.706351 -0.706351 0.046214
vn -0.000000 -0.745552 0.666447
vn 0.000000 -0.998932 0.046214
vn 0.527186 -0.527185 0.666447
vn 0.706351 -0.706352 0.046214
vn 0.000000 1.000000 0.000000
vn 0.707106 0.707107 0.000000
vn 0.706351 0.706352 -0.046214
vn -0.000000 0.998932 -0.046214
vn -0.707107 0.707107 0.000000
vn -0.706351 0.706351 -0.046214
vn -1.000000 0.000000 0.000000
vn -0.998932 0.000000 -0.046214
vn -0.707107 -0.707107 0.000000
vn -0.706351 -0.706351 -0.046214
vn 0.000000 -1.000000 0.000000
vn -0.000000 -0.998932 -0.046214
vn 0.707107 -0.707107 0.000000
vn 0.706351 -0.706352 -0.046214
vn 1.000000 0.000000 0.000000
vn 0.998932 0.000000 -0.046214
vn 0.103693 0.103694 -0.989189
vn -0.000000 0.000000 -1.000000
vn -0.000000 0.146645 -0.989189
vn -0.103694 0.103694 -0.989189
vn -0.146644 0.000000 -0.989189
vn -0.103693 -0.103694 -0.989189
vn -0.000000 -0.146645 -0.989189
vn 0.103693 -0.103694 -0.989189
vn 0.146644 0.000000 -0.989189
vn 0.745552 0.000000 -0.666448
vn 0.527184 0.527185 -0.666448
vn -0.000001 0.745551 -0.666448
vn -0.527185 0.527185 -0.666447
vn -0.745552 0.000000 -0.666447
vn -0.527185 -0.527184 -0.666448
vn -0.000000 -0.745551 -0.666448
vn 0.527185 -0.527185 -0.666448
vn 0.707106 0.707107 0.000000
vn 0.000000 1.000000 0.000000
vn 1.000000 0.000000 0.000000
vn 0.707107 -0.707107 0.000000
vn 0.000000 -1.000000 0.000000
vn -0.707107 -0.707107 0.000000
vn -1.000000 0.000000 0.000000
vn -0.707107 0.707107 0.000000
s 1
g cooler
usemtl initialShadingGroup
f 3/1/1 2/2/2 5/3/3 4/4/4
f 2/100/2 1/99/5 6/159/6 5/160/3
f 18/43/7 17/47/8 23/212/9 22/82/10
f 17/216/8 16/83/11 24/84/12 23/211/9
f 27/55/13 26/61/14 30/105/15 29/106/16
f 26/61/14 25/107/17 28/108/18 30/105/15
f 42/17/19 41/18/20 47/19/21 46/20/22
f 41/18/20 40/122/23 48/164/24 47/165/21
f 57/123/25 56/29/26 59/170/27 58/171/28
f 56/29/26 55/26/29 60/25/30 59/30/27
f 69/121/31 68/63/32 71/116/33 70/115/34
f 68/63/32 67/56/35 72/117/36 71/116/33
f 75/11/37 74/15/38 78/206/39 77/88/40
f 74/215/38 73/97/41 76/90/42 78/205/39
f 90/33/43 89/34/44 95/35/45 94/36/46
f 89/104/44 88/103/47 96/176/48 95/177/45
f 6/159/6 1/99/5 10/95/49 7/161/50
f 1/99/5 13/96/51 16/83/11 10/95/49
f 13/96/51 19/85/52 24/84/12 16/83/11
f 28/108/18 25/107/17 34/119/53 32/109/54
f 25/107/17 37/118/55 40/122/23 34/119/53
f 37/118/55 43/166/56 48/164/24 40/122/23
f 76/90/42 73/97/41 82/98/57 79/91/58
f 73/97/41 85/102/59 88/103/47 82/98/57
f 85/102/59 91/178/60 96/176/48 88/103/47
f 6/159/6 7/161/50 106/134/61 107/130/62
f 100/132/63 101/136/64 96/176/48 91/178/60
f 9/41/65 94/36/46 103/40/66 104/44/67
f 93/9/68 4/4/4 97/8/69 98/12/70
f 42/17/19 46/20/22 60/25/30 55/26/29
f 31/111/71 36/21/72 52/27/73 50/112/74
f 36/21/72 42/17/19 55/26/29 52/27/73
f 45/49/75 39/50/76 61/51/77 64/52/78
f 39/50/76 27/55/13 67/56/35 61/51/77
f 27/55/13 29/106/16 72/117/36 67/56/35
f 66/173/79 63/124/80 57/123/25 58/171/28
f 63/124/80 69/121/31 54/120/81 57/123/25
f 69/121/31 70/115/34 49/114/82 54/120/81
f 21/87/83 15/5/84 75/11/37 77/88/40
f 15/5/84 3/1/1 87/10/85 75/11/37
f 3/1/1 4/4/4 93/9/68 87/10/85
f 9/41/65 12/42/86 90/33/43 94/36/46
f 12/42/86 18/43/7 84/37/87 90/33/43
f 18/43/7 22/82/10 81/93/88 84/37/87
f 29/106/16 30/105/15 28/108/18 32/109/54 33/110/89 31/111/71 50/112/74 51/113/90 49/114/82 70/115/34 71/116/33 72/117/36
f 20/207/91 23/211/9 24/84/12 19/85/52
f 1/99/5 2/100/2 14/214/92 13/96/51
f 2/2/2 3/1/1 15/5/84 14/6/92
f 9/41/65 8/45/93 11/46/94 12/42/86
f 8/162/93 7/161/50 10/95/49 11/94/94
f 13/96/51 14/214/92 20/207/91 19/85/52
f 14/6/92 15/5/84 21/87/83 20/86/91
f 12/42/86 11/46/94 17/47/8 18/43/7
f 11/94/94 10/95/49 16/83/11 17/216/8
f 25/107/17 26/61/14 38/53/95 37/118/55
f 26/61/14 27/55/13 39/50/76 38/53/95
f 31/111/71 33/110/89 35/22/96 36/21/72
f 33/110/89 32/109/54 34/119/53 35/22/96
f 37/118/55 38/53/95 44/168/97 43/166/56
f 38/53/95 39/50/76 45/49/75 44/54/97
f 36/21/72 35/22/96 41/18/20 42/17/19
f 35/22/96 34/119/53 40/122/23 41/18/20
f 4/4/4 5/3/3 108/7/98 97/8/69
f 5/160/3 6/159/6 107/130/62 108/127/98
f 7/161/50 8/162/93 105/163/99 106/134/61
f 8/45/93 9/41/65 104/44/67 105/48/99
f 49/114/82 51/113/90 53/31/100 54/120/81
f 51/113/90 50/112/74 52/27/73 53/31/100
f 54/120/81 53/31/100 56/29/26 57/123/25
f 53/31/100 52/27/73 55/26/29 56/29/26
f 61/51/77 62/57/101 65/58/102 64/52/78
f 62/57/101 63/124/80 66/173/79 65/174/102
f 63/124/80 62/57/101 68/63/32 69/121/31
f 62/57/101 61/51/77 67/56/35 68/63/32
f 73/97/41 74/215/38 86/101/103 85/102/59
f 74/15/38 75/11/37 87/10/85 86/13/103
f 81/93/88 80/209/104 83/213/105 84/37/87
f 80/210/104 79/91/58 82/98/57 83/38/105
f 85/102/59 86/101/103 92/179/106 91/178/60
f 86/13/103 87/10/85 93/9/68 92/14/106
f 84/37/87 83/213/105 89/34/44 90/33/43
f 83/38/105 82/98/57 88/103/47 89/104/44
f 98/12/70 99/16/107 92/14/106 93/9/68
f 99/180/107 100/132/63 91/178/60 92/179/106
f 101/136/64 102/139/108 95/177/45 96/176/48
f 102/39/108 103/40/66 94/36/46 95/35/45
f 122/65/109 121/66/110 123/67/111 124/68/112
f 124/68/112 125/71/113 126/72/114 122/65/109
f 125/181/113 127/148/115 128/182/116 126/183/114
f 127/148/115 129/152/117 130/184/118 128/182/116
f 129/152/117 131/185/119 132/186/120 130/184/118
f 131/73/119 133/74/121 134/75/122 132/76/120
f 135/77/123 134/75/122 133/74/121 136/78/124
f 137/79/125 135/77/123 136/78/124 138/80/126
f 139/187/127 137/188/125 138/189/126 140/154/128
f 141/190/129 139/187/127 140/154/128 142/150/130
f 143/191/131 141/190/129 142/150/130 144/192/132
f 121/66/110 143/69/131 144/70/132 123/67/111
f 110/59/133 109/60/134 45/49/75 64/52/78
f 64/52/78 65/58/102 111/64/135 110/59/133
f 65/174/102 66/173/79 112/147/136 111/175/135
f 66/173/79 58/171/28 113/151/137 112/147/136
f 58/171/28 59/170/27 114/172/138 113/151/137
f 59/30/27 60/25/30 115/28/139 114/32/138
f 116/24/140 115/28/139 60/25/30 46/20/22
f 117/23/141 116/24/140 46/20/22 47/19/21
f 118/153/142 117/167/141 47/165/21 48/164/24
f 119/149/143 118/153/142 48/164/24 43/166/56
f 120/169/144 119/149/143 43/166/56 44/168/97
f 109/60/134 120/62/144 44/54/97 45/49/75
f 98/12/70 97/8/69 121/125/110 122/126/109
f 109/60/134 110/59/133 124/68/112 123/67/111
f 110/59/133 111/203/135 125/204/113 124/68/112
f 99/16/107 98/12/70 122/126/109 126/129/114
f 111/143/135 112/147/136 127/148/115 125/144/113
f 100/132/63 99/180/107 126/193/114 128/133/116
f 112/147/136 113/151/137 129/152/117 127/148/115
f 101/136/64 100/132/63 128/133/116 130/137/118
f 113/151/137 114/201/138 131/202/119 129/152/117
f 102/139/108 101/136/64 130/137/118 132/140/120
f 114/155/138 115/28/139 133/74/121 131/156/119
f 103/40/66 102/39/108 132/194/120 134/142/122
f 104/44/67 103/40/66 134/142/122 135/141/123
f 115/28/139 116/24/140 136/78/124 133/74/121
f 105/48/99 104/44/67 135/141/123 137/138/125
f 116/24/140 117/199/141 138/200/126 136/78/124
f 106/134/61 105/163/99 137/195/125 139/135/127
f 117/157/141 118/153/142 140/154/128 138/158/126
f 107/130/62 106/134/61 139/135/127 141/131/129
f 118/153/142 119/149/143 142/150/130 140/154/128
f 108/127/98 107/130/62 141/131/129 143/128/131
f 119/149/143 120/197/144 144/198/132 142/150/130
f 97/8/69 108/7/98 143/196/131 121/125/110
f 120/145/144 109/60/134 123/67/111 144/146/132
f 22/82/10 23/212/9 80/209/104 81/93/88
f 80/210/104 78/205/39 76/90/42 79/91/58
f 78/206/39 20/86/91 21/87/83 77/88/40
f 80/92/104 23/81/9 20/208/91 78/89/39
s 11
f 147/217/145 148/218/146 150/219/147 149/220/148
f 157/221/149 158/222/150 147/217/145 149/220/148
f 146/223/151 145/224/152 152/225/153 151/226/154
f 151/226/154 152/225/153 154/227/155 153/228/156
f 153/228/156 154/227/155 156/229/157 155/230/158
f 155/230/158 156/229/157 158/222/150 157/221/149
f 160/231/159 159/232/160 145/224/152 146/223/151
f 163/233/161 165/234/162 166/235/163 164/236/164
f 173/237/165 165/234/162 163/233/161 174/238/166
f 162/239/167 167/240/168 168/241/169 161/242/170
f 167/240/168 169/243/171 170/244/172 168/241/169
f 169/243/171 171/245/173 172/246/174 170/244/172
f 171/245/173 173/237/165 174/238/166 172/246/174
f 160/231/159 162/239/167 161/242/170 159/232/160
f 177/247/175 176/248/176 179/249/177 178/250/178
f 176/248/176 175/251/179 180/252/180 179/249/177
f 183/253/181 182/254/182 185/255/183 184/256/184
f 182/257/182 181/258/185 186/259/186 185/260/183
f 189/261/187 188/262/188 191/263/189 190/264/190
f 188/265/188 187/266/191 192/267/192 191/268/189
f 195/269/193 194/270/194 197/271/195 196/272/196
f 194/270/194 193/273/197 198/274/198 197/271/195
f 225/275/199 224/276/200 228/277/201 227/278/202
f 224/276/200 223/279/203 226/280/204 228/277/201
f 231/281/205 230/282/206 234/283/207 233/284/208
f 230/285/206 229/286/209 232/287/210 234/288/207
f 243/289/211 242/290/212 245/291/213 244/292/214
f 242/293/212 241/294/215 246/295/216 245/296/213
f 249/297/217 248/298/218 251/299/219 250/300/220
f 248/298/218 247/301/221 252/302/222 251/299/219
f 149/220/148 150/219/147 180/252/180 175/251/179
f 177/247/175 178/250/178 186/259/186 181/258/185
f 183/253/181 184/256/184 148/218/146 147/217/145
f 158/222/150 211/303/223 183/253/181 147/217/145
f 213/304/224 214/305/225 177/247/175 181/258/185
f 216/306/226 157/221/149 149/220/148 175/251/179
f 145/224/152 189/261/187 190/264/190 152/225/153
f 187/266/191 195/269/193 196/272/196 192/267/192
f 193/273/197 146/223/151 151/226/154 198/274/198
f 152/225/153 190/264/190 199/307/227 154/227/155
f 192/267/192 196/272/196 202/308/228 201/309/229
f 198/274/198 151/226/154 153/228/156 204/310/230
f 154/227/155 199/307/227 205/311/231 156/229/157
f 201/309/229 202/308/228 208/312/232 207/313/233
f 204/310/230 153/228/156 155/230/158 210/314/234
f 156/229/157 205/311/231 211/303/223 158/222/150
f 207/313/233 208/312/232 214/305/225 213/304/224
f 210/314/234 155/230/158 157/221/149 216/306/226
f 217/315/235 160/231/159 146/223/151 193/273/197
f 220/316/236 219/317/237 195/269/193 187/266/191
f 159/232/160 222/318/238 189/261/187 145/224/152
f 165/234/162 225/275/199 227/278/202 166/235/163
f 223/279/203 231/281/205 233/284/208 226/280/204
f 229/286/209 163/233/161 164/236/164 232/287/210
f 174/238/166 163/233/161 229/286/209 235/319/239
f 237/320/240 231/281/205 223/279/203 238/321/241
f 240/322/242 225/275/199 165/234/162 173/237/165
f 161/242/170 168/241/169 246/295/216 241/294/215
f 243/289/211 244/292/214 252/302/222 247/301/221
f 249/297/217 250/300/220 167/240/168 162/239/167
f 168/241/169 170/244/172 255/323/243 246/295/216
f 244/292/214 253/324/244 258/325/245 252/302/222
f 250/300/220 256/326/246 169/243/171 167/240/168
f 170/244/172 172/246/174 261/327/247 255/323/243
f 253/324/244 259/328/248 264/329/249 258/325/245
f 256/326/246 262/330/250 171/245/173 169/243/171
f 172/246/174 174/238/166 235/319/239 261/327/247
f 259/328/248 237/320/240 238/321/241 264/329/249
f 262/330/250 240/322/242 173/237/165 171/245/173
f 217/315/235 249/297/217 162/239/167 160/231/159
f 220/316/236 243/289/211 247/301/221 219/317/237
f 159/232/160 161/242/170 241/294/215 222/318/238
f 187/266/191 188/265/188 221/331/251 220/316/236
f 188/262/188 189/261/187 222/318/238 221/332/251
f 190/264/190 191/263/189 200/333/252 199/307/227
f 191/268/189 192/267/192 201/309/229 200/334/252
f 193/273/197 194/270/194 218/335/253 217/315/235
f 194/270/194 195/269/193 219/317/237 218/335/253
f 196/272/196 197/271/195 203/336/254 202/308/228
f 197/271/195 198/274/198 204/310/230 203/336/254
f 199/307/227 200/333/252 206/337/255 205/311/231
f 200/334/252 201/309/229 207/313/233 206/338/255
f 202/308/228 203/336/254 209/339/256 208/312/232
f 203/336/254 204/310/230 210/314/234 209/339/256
f 205/311/231 206/337/255 212/340/257 211/303/223
f 206/338/255 207/313/233 213/304/224 212/341/257
f 208/312/232 209/339/256 215/342/258 214/305/225
f 209/339/256 210/314/234 216/306/226 215/342/258
f 181/258/185 182/257/182 212/341/257 213/304/224
f 182/254/182 183/253/181 211/303/223 212/340/257
f 175/251/179 176/248/176 215/342/258 216/306/226
f 176/248/176 177/247/175 214/305/225 215/342/258
f 223/279/203 224/276/200 239/343/259 238/321/241
f 224/276/200 225/275/199 240/322/242 239/343/259
f 229/286/209 230/285/206 236/344/260 235/319/239
f 230/282/206 231/281/205 237/320/240 236/345/260
f 220/316/236 221/331/251 242/290/212 243/289/211
f 221/332/251 222/318/238 241/294/215 242/293/212
f 244/292/214 245/291/213 254/346/261 253/324/244
f 245/296/213 246/295/216 255/323/243 254/347/261
f 217/315/235 218/335/253 248/298/218 249/297/217
f 218/335/253 219/317/237 247/301/221 248/298/218
f 250/300/220 251/299/219 257/348/262 256/326/246
f 251/299/219 252/302/222 258/325/245 257/348/262
f 253/324/244 254/346/261 260/349/263 259/328/248
f 254/347/261 255/323/243 261/327/247 260/350/263
f 256/326/246 257/348/262 263/351/264 262/330/250
f 257/348/262 258/325/245 264/329/249 263/351/264
f 235/319/239 236/344/260 260/350/263 261/327/247
f 236/345/260 237/320/240 259/328/248 260/349/263
f 238/321/241 239/343/259 263/351/264 264/329/249
f 239/343/259 240/322/242 262/330/250 263/351/264
s 23
f 268/352/265 271/353/266 265/354/267
f 271/353/266 274/355/268 265/354/267
f 274/355/268 277/356/269 265/354/267
f 277/356/269 280/357/270 265/354/267
f 280/357/270 283/358/271 265/354/267
f 283/358/271 286/359/272 265/354/267
f 286/359/272 289/360/273 265/354/267
f 289/360/273 268/352/265 265/354/267
f 266/361/274 267/362/275 288/363/276 287/364/277
f 267/362/275 268/352/265 289/360/273 288/363/276
f 268/352/265 267/362/275 270/365/278 271/353/266
f 267/362/275 266/361/274 269/366/279 270/365/278
f 271/353/266 270/365/278 273/367/280 274/355/268
f 270/365/278 269/366/279 272/368/281 273/367/280
f 274/355/268 273/367/280 276/369/282 277/356/269
f 273/367/280 272/368/281 275/370/283 276/369/282
f 277/356/269 276/369/282 279/371/284 280/357/270
f 276/369/282 275/370/283 278/372/285 279/371/284
f 280/357/270 279/371/284 282/373/286 283/358/271
f 279/371/284 278/372/285 281/374/287 282/373/286
f 283/358/271 282/373/286 285/375/288 286/359/272
f 282/373/286 281/374/287 284/376/289 285/375/288
f 286/359/272 285/375/288 288/363/276 289/360/273
f 285/375/288 284/376/289 287/364/277 288/363/276
s 25
f 315/377/290 316/378/291 291/379/292 294/380/293
f 322/381/294 315/382/290 294/383/293 297/384/295
f 321/385/296 322/386/294 297/387/295 300/388/297
f 320/389/298 321/390/296 300/391/297 303/392/299
f 319/393/300 320/394/298 303/395/299 306/396/301
f 318/397/302 319/398/300 306/399/301 309/400/303
f 317/401/304 318/402/302 309/403/303 312/404/305
f 316/405/291 317/406/304 312/407/305 291/408/292
f 293/409/306 290/410/307 296/411/308
f 296/411/308 290/410/307 299/412/309
f 299/412/309 290/410/307 302/413/310
f 302/413/310 290/410/307 305/414/311
f 305/414/311 290/410/307 308/415/312
f 308/415/312 290/410/307 311/416/313
f 311/416/313 290/410/307 314/417/314
f 314/417/314 290/410/307 293/409/306
f 291/408/292 312/407/305 313/418/315 292/419/316
f 292/419/316 313/418/315 314/417/314 293/409/306
f 293/409/306 296/411/308 295/420/317 292/419/316
f 292/419/316 295/420/317 294/380/293 291/379/292
f 296/411/308 299/412/309 298/421/318 295/420/317
f 295/420/317 298/421/318 297/384/295 294/383/293
f 299/412/309 302/413/310 301/422/319 298/421/318
f 298/421/318 301/422/319 300/388/297 297/387/295
f 302/413/310 305/414/311 304/423/320 301/422/319
f 301/422/319 304/423/320 303/392/299 300/391/297
f 305/414/311 308/415/312 307/424/321 304/423/320
f 304/423/320 307/424/321 306/396/301 303/395/299
f 308/415/312 311/416/313 310/425/322 307/424/321
f 307/424/321 310/425/322 309/400/303 306/399/301
f 311/416/313 314/417/314 313/418/315 310/425/322
f 310/425/322 313/418/315 312/404/305 309/403/303
s 23
f 324/426/323 323/427/324 269/366/279 266/361/274
f 325/428/325 324/429/323 266/361/274 287/364/277
f 326/430/326 325/431/325 287/364/277 284/376/289
f 327/432/327 326/433/326 284/376/289 281/374/287
f 328/434/328 327/435/327 281/374/287 278/372/285
f 329/436/329 328/437/328 278/372/285 275/370/283
f 330/438/330 329/439/329 275/370/283 272/368/281
f 323/440/324 330/441/330 272/368/281 269/366/279
