# This file uses meters as units for non-parametric coordinates.

mtllib ice_pick.mtl
g default
v -0.968336 24.291442 -99.023685
v -3.403619 26.303811 -100.413369
v 5.142499 17.428420 -109.641599
v 5.142432 26.300879 -100.413418
v 2.707149 24.291442 -99.023685
v -3.403619 34.762700 -86.879250
v -3.403619 30.661155 -94.219388
v -0.966140 28.642630 -92.845620
v -0.964544 32.708593 -85.498365
v 2.703357 32.708593 -85.498365
v 2.704953 28.642630 -92.845620
v 5.142432 30.661155 -94.219388
v 5.142432 34.762700 -86.879250
v -0.968054 39.762189 -90.324342
v -0.966140 35.697207 -97.669304
v -3.403619 33.693272 -96.286632
v -3.403619 37.719368 -88.892712
v 5.142432 37.719368 -88.892712
v 5.142432 33.690333 -96.286682
v 2.704953 35.697207 -97.669304
v 2.706867 39.762189 -90.324342
v -3.403619 29.324234 -102.485350
v -0.968336 31.346019 -103.847369
v 2.707149 31.346019 -103.847369
v 5.142432 29.325537 -102.488863
v -3.403619 39.423319 -72.732759
v -0.966140 37.372183 -71.330261
v 2.704953 37.372183 -71.330261
v 5.142432 39.423319 -72.732759
v 2.704953 44.426760 -76.153945
v 5.142432 42.375624 -74.751447
v -3.403619 42.375624 -74.751447
v -0.966140 44.426760 -76.153945
v -0.948347 2.880050 -127.181038
v 2.687159 2.880050 -127.181038
v 2.762326 -0.060016 -125.170719
v -0.994827 -0.031947 -125.189912
v -0.966140 40.163305 -63.178577
v -0.679890 41.180659 -62.093575
v -0.048459 42.628186 -62.276121
v 1.787271 42.628186 -62.276121
v 2.418703 41.180659 -62.093575
v 2.704953 40.163305 -63.178577
v 5.142432 42.257637 -64.441391
v 4.561532 42.961999 -63.235883
v 3.221750 43.779946 -63.063656
v 5.142432 45.273030 -66.256085
v 4.588546 45.547056 -64.898375
v 3.222383 45.410005 -64.178236
v 2.704953 47.368923 -67.513863
v 2.499075 47.332016 -66.047569
v 1.964633 46.422959 -64.870860
v -0.225821 46.422959 -64.870860
v -0.760262 47.332016 -66.047569
v -0.966140 47.368923 -67.513863
v -3.403619 45.265561 -66.280234
v -2.842288 45.543281 -64.904236
v -1.457760 45.404394 -64.174399
v -3.403619 42.249327 -64.468264
v -2.814917 42.963163 -63.246523
v -1.457138 43.792100 -63.071967
v -0.982168 30.911673 -64.470812
v -0.966140 32.952783 -68.308423
v -0.966140 31.342427 -66.204560
v 2.688009 30.829713 -64.471173
v 2.704953 31.342427 -66.204560
v 2.704953 32.952783 -68.308423
v 2.704953 33.867504 -60.413478
v 2.720981 32.293178 -61.527130
v 2.704953 36.662490 -60.784836
v -0.949197 32.375137 -61.526768
v -0.966140 33.867504 -60.413478
v -0.966140 36.662490 -60.784836
v -0.976872 15.353182 -108.156256
v -1.364955 14.466691 -107.721281
v -1.527838 13.527116 -108.042410
v -4.742630 16.099934 -110.093242
v -4.362829 16.888321 -109.601779
v -3.446271 17.417084 -109.628669
v -3.499966 1.805925 -123.382493
v -4.378763 1.852138 -122.868312
v -4.742630 2.431839 -122.160503
v -1.580188 -0.108990 -119.980434
v -1.425157 -0.538334 -120.849581
v -1.045855 -0.227443 -121.767786
v 6.089185 16.891637 -109.605563
v 6.481442 16.099932 -110.093245
v 3.266651 13.527116 -108.042410
v 3.103767 14.466691 -107.721281
v 2.715684 15.353182 -108.156256
v 2.784668 -0.227443 -121.767786
v 3.163969 -0.538334 -120.849581
v 3.319001 -0.108990 -119.980434
v 6.481442 2.431835 -122.160506
v 6.109117 1.854388 -122.870880
v 5.209891 1.813615 -123.391265
v -3.496778 20.299889 -111.629963
v -4.370150 20.256545 -112.151275
v -4.731816 19.673735 -112.864095
v -1.517559 22.355934 -114.832638
v -1.365676 22.784849 -113.967166
v -0.997349 22.475982 -113.052016
v -0.971413 6.386377 -127.086116
v -1.344115 7.263274 -127.516944
v -1.499189 8.193956 -127.199731
v -4.731816 5.887520 -124.992688
v -4.343915 5.091696 -125.478223
v -3.407685 4.549760 -125.437043
v 2.736323 22.476356 -113.052461
v 3.103430 22.785250 -113.967965
v 3.254196 22.356299 -114.833674
v 6.469639 19.674366 -112.864849
v 6.108128 20.256918 -112.151836
v 5.235093 20.299806 -111.629890
v 5.145623 4.549524 -125.436771
v 6.081758 5.091976 -125.478756
v 6.469639 5.888018 -124.993559
v 3.220163 8.207640 -127.189853
v 3.064531 7.275930 -127.507273
v 2.691989 6.397969 -127.075585
v 0.869406 6.878371 -46.857195
v -0.358674 14.156003 -48.806376
v 2.097486 14.156003 -48.806376
v -0.358674 41.137139 -65.696155
v 2.048001 41.137139 -65.696155
v 0.858245 34.064843 -81.509737
v -0.358674 28.202687 -57.465895
v 2.067487 28.202687 -57.465895
v 0.862640 25.982101 -64.029865
v 0.860859 30.020785 -69.995312
v 2.059592 33.443417 -60.800601
v -0.358674 33.443417 -60.800601
v 0.859484 32.709665 -75.231755
v 2.053494 37.490906 -63.376038
v -0.358674 37.490906 -63.376038
v 0.869406 55.012019 -76.896950
v 1.757755 54.818385 -75.466880
v -0.018943 54.818385 -75.466880
v 1.757755 51.092371 -71.530235
v 0.002758 51.092371 -71.530235
v 0.879215 48.645589 -73.310796
v 0.881797 44.385729 -74.235319
v 0.008469 46.645516 -68.366362
v 1.757755 46.645516 -68.366362
v 1.757755 53.210806 -73.188588
v -0.006964 53.210806 -73.188588
v 0.874821 52.308463 -74.208324
vt 0.851535 0.263838
vt 0.792310 0.263838
vt 0.909838 0.263838
vt 0.851535 0.397571
vt 0.792310 0.397571
vt 0.732729 0.263838
vt 0.909838 0.397571
vt 0.851535 0.535751
vt 0.792310 0.535751
vt 0.732729 0.397571
vt 0.909838 0.535751
vt 0.851535 0.781828
vt 0.792310 0.781828
vt 0.732729 0.535751
vt 0.909838 0.781828
vt 0.851535 0.941897
vt 0.792310 0.941897
vt 0.732729 0.781828
vt 0.304743 0.807164
vt 0.792310 0.965323
vt 0.851535 0.965323
vt 0.732729 0.941897
vt 0.356460 0.666661
vt 0.376497 0.807164
vt 0.909838 0.965323
vt 0.732729 0.965323
vt 0.399042 0.680666
vt 0.419079 0.785660
vt 0.421615 0.700766
vt 0.429290 0.755859
vt 0.556728 0.263838
vt 0.556728 0.039317
vt 0.614975 0.263838
vt 0.982263 0.263838
vt 0.670730 0.263838
vt 0.614975 0.397571
vt 0.556728 0.397571
vt 0.496324 0.397571
vt 0.670730 0.397571
vt 0.556728 0.535751
vt 0.614975 0.535751
vt 0.496324 0.535751
vt 0.670730 0.535751
vt 0.614975 0.781828
vt 0.556728 0.781828
vt 0.199657 0.668034
vt 0.670730 0.781828
vt 0.614975 0.941897
vt 0.556728 0.941897
vt 0.496324 0.941897
vt 0.670730 0.941897
vt 0.556728 0.965323
vt 0.614975 0.965323
vt 0.496324 0.965323
vt 0.089039 0.808538
vt 0.109076 0.668034
vt 0.670730 0.965323
vt 0.046457 0.787033
vt 0.066494 0.682039
vt 0.035105 0.756445
vt 0.042780 0.701352
vt 0.071104 0.202905
vt 0.071104 0.121105
vt 0.388779 0.121105
vt 0.388779 0.202905
vt 0.043668 0.121105
vt 0.043668 0.202905
vt 0.071104 0.043526
vt 0.388779 0.043526
vt 0.406679 0.121105
vt 0.406679 0.202905
vt 0.071104 0.286574
vt 0.388779 0.286574
vt 0.043668 0.043526
vt 0.043668 0.286574
vt 0.406679 0.043526
vt 0.406679 0.286574
vt 0.071104 0.509575
vt 0.071104 0.438131
vt 0.388779 0.438131
vt 0.388779 0.509575
vt 0.043668 0.509575
vt 0.043668 0.438131
vt 0.071104 0.364447
vt 0.388779 0.364447
vt 0.406679 0.509575
vt 0.406679 0.438131
vt 0.071104 0.581262
vt 0.388779 0.581262
vt 0.043668 0.581262
vt 0.043668 0.364447
vt 0.406679 0.364447
vt 0.406679 0.581262
vt 0.449194 0.687130
vt 0.467322 0.686471
vt 0.467604 0.703710
vt 0.449824 0.704912
vt 0.445183 0.665949
vt 0.469200 0.666442
vt 0.485788 0.682402
vt 0.486195 0.703655
vt 0.471603 0.721067
vt 0.448273 0.723335
vt 0.428953 0.708320
vt 0.428293 0.684314
vt 0.065376 0.832616
vt 0.057630 0.816692
vt 0.095646 0.816692
vt 0.087899 0.832616
vt 0.048094 0.849915
vt 0.031435 0.842728
vt 0.121935 0.842643
vt 0.105498 0.849734
vt 0.048086 0.873878
vt 0.031100 0.880338
vt 0.122267 0.880336
vt 0.105506 0.873961
vt 0.063200 0.889016
vt 0.096631 0.906371
vt 0.090075 0.889016
vt 0.429356 0.041021
vt 0.492912 0.041021
vt 0.492912 0.133699
vt 0.429356 0.133699
vt 0.429356 0.177266
vt 0.492912 0.177266
vt 0.429356 0.200954
vt 0.492912 0.200954
vt 0.492912 0.405296
vt 0.429356 0.405296
vt 0.429356 0.331847
vt 0.492912 0.331847
vt 0.492912 0.288258
vt 0.429356 0.288258
vt 0.909838 0.039317
vt 0.851535 0.039317
vt 0.043668 0.661728
vt 0.496324 0.039317
vt 0.792310 0.039317
vt 0.071104 0.661728
vt 0.732729 0.039317
vt 0.614975 0.039317
vt 0.670730 0.039317
vt 0.982263 0.397571
vt 0.982263 0.535751
vt 0.982263 0.781828
vt 0.909838 0.941897
vt 0.965594 0.952627
vt 0.956899 0.974380
vt 0.492912 0.257350
vt 0.429356 0.257350
vt 0.388779 0.661728
vt 0.406679 0.661728
vt 0.265879 0.666661
vt 0.496324 0.781828
vt 0.160793 0.808538
vt 0.023995 0.286574
vt 0.023995 0.202905
vt 0.023995 0.364447
vt 0.023995 0.438131
vt 0.023995 0.509575
vt 0.023995 0.581262
vt 0.023995 0.661728
vt 0.424893 0.202905
vt 0.424893 0.286574
vt 0.424893 0.364447
vt 0.424893 0.438131
vt 0.424893 0.121105
vt 0.424893 0.661728
vt 0.424893 0.581262
vt 0.424893 0.509575
vt 0.424893 0.043526
vt 0.056643 0.906371
vt 0.496324 0.263838
vt 0.982263 0.039317
vt 0.023995 0.121105
vt 0.023995 0.043526
vt 0.233865 0.664299
vt 0.238610 0.712122
vt 0.229887 0.712187
vt 0.224782 0.815822
vt 0.245126 0.815696
vt 0.248014 0.871178
vt 0.221546 0.870962
vt 0.303304 0.818760
vt 0.351081 0.882006
vt 0.121582 0.882049
vt 0.167060 0.819701
vt 0.387381 0.932303
vt 0.253005 0.921103
vt 0.216542 0.919475
vt 0.086766 0.930331
vt 0.439657 0.975024
vt 0.257453 0.966247
vt 0.036345 0.971427
vt 0.212154 0.963067
vt 0.438138 0.806105
vt 0.435462 0.815183
vt 0.430497 0.811671
vt 0.403769 0.837903
vt 0.416980 0.848024
vt 0.381301 0.895876
vt 0.366403 0.883157
vt 0.441043 0.877486
vt 0.447593 0.927478
vt 0.326562 0.825556
vt 0.374621 0.824103
vt 0.419764 0.820926
vt 0.429991 0.828223
vt 0.443176 0.832113
vt 0.412346 0.810285
vn 0.382946 -0.697547 0.605624
vn -0.381578 -0.697511 0.606529
vn -0.352872 -0.588002 0.727829
vn 0.354854 -0.587090 0.727602
vn -0.934290 -0.268714 0.234298
vn -0.377197 -0.786258 0.489409
vn -0.932882 -0.305430 0.190904
vn -0.918278 0.300254 -0.258095
vn -0.939866 0.303402 -0.156841
vn -0.901601 -0.227417 0.367963
vn 0.918805 0.299068 -0.257597
vn 0.934205 -0.269620 0.233595
vn 0.901949 -0.227702 0.366934
vn 0.940904 0.301284 -0.154684
vn 0.932889 -0.305399 0.190916
vn 0.377135 -0.786264 0.489447
vn -0.936669 -0.323403 0.134395
vn -0.379663 -0.858084 0.345756
vn -0.597672 -0.791689 0.126559
vn -0.916075 -0.380435 0.126787
vn -0.912032 0.381318 -0.150979
vn -0.923403 0.326459 -0.201871
vn 0.379663 -0.858084 0.345756
vn 0.936663 -0.323418 0.134401
vn 0.916149 -0.380278 0.126730
vn 0.597693 -0.791667 0.126593
vn 0.923464 0.326350 -0.201769
vn 0.912022 0.381329 -0.151009
vn -0.355284 0.865214 -0.353804
vn -0.928304 0.352644 -0.117875
vn -0.369466 0.881584 -0.293777
vn -0.367145 0.789825 -0.491305
vn 0.355361 0.865179 -0.353814
vn 0.367222 0.789821 -0.491253
vn -0.363521 0.706871 -0.606783
vn 0.369566 0.881547 -0.293761
vn 0.928325 0.352594 -0.117853
vn 0.363338 0.706948 -0.606803
vn 0.390541 0.721820 -0.571361
vn -0.390763 0.721771 -0.571271
vn -0.291970 -0.322138 -0.900545
vn -0.292574 -0.799404 -0.524741
vn -0.599037 -0.587574 -0.543977
vn -0.552908 -0.404824 -0.728293
vn 0.293277 -0.321282 -0.900426
vn -0.121036 -0.164254 -0.978964
vn 0.122917 -0.163342 -0.978882
vn 0.292897 -0.801570 -0.521245
vn 0.552761 -0.403280 -0.729260
vn 0.602541 -0.584544 -0.543371
vn 0.154581 -0.970568 -0.184669
vn -0.157941 -0.970035 -0.184626
vn -0.085278 0.363098 0.927840
vn -0.301490 -0.369151 0.879109
vn 0.298847 -0.370639 0.879385
vn 0.083381 0.363111 0.928008
vn -0.922163 -0.195228 0.333919
vn 0.921966 -0.196569 0.333676
vn 0.068917 0.690523 0.720020
vn 0.264209 0.923779 0.277176
vn -0.266168 0.923104 0.277550
vn -0.070244 0.690398 0.720011
vn 0.373356 0.890784 -0.259053
vn -0.372648 0.891135 -0.258867
vn -0.405757 -0.893725 0.191355
vn 0.395766 -0.898715 0.188890
vn 0.416900 -0.732990 0.537513
vn -0.414265 -0.730253 0.543245
vn 0.931353 0.356852 -0.072373
vn 0.911510 -0.367395 0.184854
vn -0.911354 -0.367585 0.185241
vn -0.930973 0.357837 -0.072400
vn 0.153150 0.493979 0.855880
vn 0.141495 0.596386 0.790129
vn -0.142077 0.595582 0.790630
vn -0.153783 0.494909 0.855228
vn -0.720002 0.044610 0.692537
vn 0.718352 0.042871 0.694357
vn 0.698067 0.567218 0.436997
vn -0.699693 0.565116 0.437119
vn 0.889437 -0.296026 -0.348239
vn -0.889437 -0.296026 -0.348239
vn -0.895963 0.178594 0.406639
vn 0.895963 0.178594 0.406639
vn -0.855841 -0.454836 -0.246293
vn 0.858051 -0.451177 -0.245333
vn 0.824847 -0.096208 0.557110
vn -0.824567 -0.094913 0.557746
vn -0.390507 -0.593468 0.703775
vn -0.254205 0.009017 0.967108
vn -0.661948 0.240828 0.709807
vn -0.936963 -0.216612 0.274188
vn -0.913359 -0.282433 0.293270
vn -0.715551 -0.638078 -0.284330
vn -0.306039 -0.950175 0.059220
vn -0.367500 -0.627448 0.686479
vn 0.937008 -0.216351 0.274241
vn 0.657099 0.245051 0.712861
vn 0.253725 0.012329 0.967198
vn 0.390514 -0.593369 0.703856
vn 0.367523 -0.627522 0.686398
vn 0.306023 -0.950357 0.056309
vn 0.712902 -0.639323 -0.288161
vn 0.913425 -0.282458 0.293041
vn -0.903731 0.295661 -0.309605
vn -0.725960 0.624878 0.287245
vn -0.316179 0.947484 -0.048005
vn -0.355258 0.629874 -0.690688
vn -0.378598 0.595899 -0.708215
vn -0.264230 -0.026631 -0.964092
vn -0.671257 -0.253152 -0.696655
vn -0.928754 0.230939 -0.289972
vn 0.354772 0.629882 -0.690931
vn 0.316187 0.947472 -0.048193
vn 0.723812 0.625652 0.290956
vn 0.903322 0.296219 -0.310263
vn 0.928534 0.231072 -0.290569
vn 0.668401 -0.253973 -0.699098
vn 0.264831 -0.025082 -0.963969
vn 0.377362 0.596189 -0.708630
vn 0.000000 0.258713 0.965954
vn 0.000000 0.258713 0.965954
vn 0.000000 0.258713 0.965954
vn 0.000000 0.528067 0.849203
vn 0.000000 0.528062 0.849206
vn 0.000000 0.536841 0.843683
vn 0.000000 0.536841 0.843683
vn 0.974515 -0.141309 -0.174218
vn 0.978857 -0.132370 -0.155943
vn 0.991580 -0.095420 -0.087548
vn 0.990178 -0.101123 -0.096552
vn -0.989791 -0.103689 -0.097783
vn -0.991226 -0.097987 -0.088712
vn -0.978458 -0.134371 -0.156727
vn -0.974162 -0.143070 -0.174756
vn 0.000000 0.524774 0.851241
vn 0.000000 0.524774 0.851241
vn 0.968499 -0.152391 -0.196942
vn 0.968499 -0.152391 -0.196942
vn -0.968212 -0.153868 -0.197205
vn -0.968212 -0.153868 -0.197205
vn 0.994774 -0.085308 -0.056100
vn 0.994133 -0.086865 -0.064450
vn -0.993842 -0.089502 -0.065329
vn -0.994497 -0.087991 -0.056857
vn 0.995216 -0.084112 -0.049706
vn 0.995216 -0.084112 -0.049706
vn -0.994949 -0.086829 -0.050364
vn -0.994949 -0.086829 -0.050364
vn 0.000000 0.990957 0.134179
vn 0.000000 0.990957 0.134179
vn 0.000000 0.990957 0.134179
vn 0.000000 0.592013 0.805928
vn 0.000000 0.592037 0.805911
vn 0.000000 0.579728 0.814810
vn 0.000000 0.579727 0.814810
vn -0.962824 -0.090072 -0.254671
vn -0.975138 -0.062985 -0.212459
vn -0.979890 -0.050579 -0.193024
vn -0.979890 -0.050579 -0.193024
vn 0.979713 -0.049647 -0.194161
vn 0.979713 -0.049647 -0.194161
vn 0.974909 -0.061990 -0.213800
vn 0.962496 -0.088861 -0.256329
vn 0.000000 0.726580 0.687082
vn 0.000000 0.726834 0.686813
vn -0.871082 -0.291397 -0.395354
vn -0.874154 -0.283717 -0.394156
vn 0.873792 -0.281705 -0.396395
vn 0.870896 -0.289009 -0.397511
vn 0.000000 0.817073 0.576533
vn 0.000000 0.817073 0.576534
vn -0.770058 -0.483132 -0.416647
vn -0.770058 -0.483132 -0.416647
vn 0.770705 -0.480792 -0.418154
vn 0.770705 -0.480792 -0.418154
s 1
g ice_pick
usemtl initialShadingGroup
f 5/34/1 1/3/2 74/135/3 90/175/4
f 2/1/5 1/3/2 8/7/6 7/4/7
f 2/1/5 22/2/8 97/139/9 79/136/10
f 25/33/11 4/31/12 3/32/13 114/142/14
f 5/174/1 4/31/12 12/37/15 11/38/16
f 6/8/17 9/11/18 27/15/19 26/12/20
f 7/4/7 6/8/17 17/9/21 16/5/22
f 9/11/18 8/7/6 11/144/16 10/145/23
f 10/42/23 13/40/24 29/45/25 28/155/26
f 13/40/24 12/37/15 19/36/27 18/41/28
f 14/14/29 17/9/21 32/13/30 33/18/31
f 15/10/32 14/14/29 21/43/33 20/39/34
f 16/5/22 15/10/32 23/6/35 22/2/8
f 18/41/28 21/43/33 30/47/36 31/44/37
f 20/39/34 19/36/27 25/33/11 24/35/38
f 23/6/35 24/35/38 109/143/39 102/141/40
f 34/94/41 37/97/42 80/104/43 108/105/44
f 35/95/45 34/94/41 103/98/46 120/99/47
f 36/96/48 35/95/45 115/100/49 96/101/50
f 37/97/42 36/96/48 91/102/51 85/103/52
f 1/3/2 5/34/1 11/144/16 8/7/6
f 15/10/32 20/39/34 24/35/38 23/6/35
f 34/94/41 35/95/45 36/96/48 37/97/42
f 4/31/12 25/33/11 19/36/27 12/37/15
f 22/2/8 2/1/5 7/4/7 16/5/22
f 9/11/18 10/145/23 28/146/26 27/15/19
f 13/40/24 18/41/28 31/44/37 29/45/25
f 21/43/33 14/14/29 33/18/31 30/47/36
f 17/9/21 6/8/17 26/12/20 32/13/30
f 6/8/17 7/4/7 8/7/6 9/11/18
f 10/42/23 11/38/16 12/37/15 13/40/24
f 14/14/29 15/10/32 16/5/22 17/9/21
f 18/41/28 19/36/27 20/39/34 21/43/33
f 40/106/53 39/107/54 42/108/55 41/109/56
f 39/25/54 38/147/57 43/148/58 42/149/55
f 52/120/59 51/119/60 54/173/61 53/118/62
f 51/57/60 50/51/63 55/22/64 54/26/61
f 62/127/65 65/128/66 69/150/67 71/151/68
f 29/45/25 31/44/37 47/48/69 44/49/70
f 30/47/36 33/18/31 55/22/64 50/51/63
f 32/13/30 26/12/20 59/16/71 56/17/72
f 26/12/20 27/15/19 38/147/57 59/16/71
f 28/155/26 29/45/25 44/49/70 43/50/58
f 33/18/31 32/13/30 56/17/72 55/22/64
f 31/44/37 30/47/36 50/51/63 47/48/69
f 46/113/73 49/117/74 58/114/75 61/110/76
f 53/118/62 58/114/75 49/117/74 52/120/59
f 61/110/76 40/106/53 41/109/56 46/113/73
f 38/147/57 39/25/54 60/21/77 59/16/71
f 39/107/54 40/106/53 61/110/76 60/111/77
f 41/109/56 42/108/55 45/112/78 46/113/73
f 42/54/55 43/50/58 44/49/70 45/52/78
f 46/113/73 45/112/78 48/116/79 49/117/74
f 45/52/78 44/49/70 47/48/69 48/53/79
f 49/117/74 48/116/79 51/119/60 52/120/59
f 48/53/79 47/48/69 50/51/63 51/57/60
f 53/118/62 54/173/61 57/115/80 58/114/75
f 54/26/61 55/22/64 56/17/72 57/20/80
f 58/114/75 57/115/80 60/111/77 61/110/76
f 57/20/80 56/17/72 59/16/71 60/21/77
f 27/121/19 28/122/26 67/123/81 63/124/82
f 43/129/58 38/130/57 73/131/83 70/132/84
f 62/127/65 64/125/85 66/126/86 65/128/66
f 64/125/85 63/124/82 67/123/81 66/126/86
f 69/150/67 68/133/87 72/134/88 71/151/68
f 68/133/87 70/132/84 73/131/83 72/134/88
f 68/58/87 66/59/86 67/56/81 70/55/84
f 72/28/88 64/27/85 62/29/65 71/30/68
f 38/19/57 27/154/19 63/23/82 73/24/83
f 73/24/83 63/23/82 64/27/85 72/28/88
f 68/58/87 69/60/67 65/61/66 66/59/86
f 70/55/84 67/56/81 28/46/26 43/156/58
f 76/88/89 75/90/90 78/82/91 77/78/92
f 75/90/90 74/162/3 79/161/10 78/82/91
f 82/81/93 81/86/94 84/93/95 83/89/96
f 81/86/94 80/171/43 85/170/52 84/93/95
f 87/63/97 86/66/98 89/74/99 88/68/100
f 86/66/98 3/176/13 90/177/4 89/74/99
f 93/69/101 92/76/102 95/70/103 94/64/104
f 92/76/102 91/172/51 96/168/50 95/70/103
f 99/79/105 98/83/106 101/91/107 100/84/108
f 98/83/106 97/160/9 102/159/40 101/91/107
f 105/85/109 104/92/110 107/87/111 106/80/112
f 104/92/110 103/166/46 108/167/44 107/87/111
f 111/72/113 110/75/114 113/67/115 112/62/116
f 110/75/114 109/157/39 114/158/14 113/67/115
f 117/65/117 116/71/118 119/77/119 118/73/120
f 116/71/118 115/164/49 120/165/47 119/77/119
f 76/88/89 77/78/92 82/81/93 83/89/96
f 87/63/97 88/68/100 93/69/101 94/64/104
f 99/79/105 100/84/108 105/85/109 106/80/112
f 111/72/113 112/62/116 117/65/117 118/73/120
f 100/84/108 111/72/113 118/73/120 105/85/109
f 112/62/116 87/63/97 94/64/104 117/65/117
f 88/140/100 76/88/89 83/89/96 93/152/101
f 77/78/92 99/79/105 106/80/112 82/81/93
f 2/1/5 79/136/10 74/135/3 1/3/2
f 37/97/42 85/103/52 80/104/43
f 36/96/48 96/101/50 91/102/51
f 23/6/35 102/141/40 97/139/9 22/2/8
f 34/94/41 108/105/44 103/98/46
f 25/33/11 114/142/14 109/143/39 24/35/38
f 35/95/45 120/99/47 115/100/49
f 74/162/3 75/90/90 89/137/99 90/163/4
f 75/90/90 76/88/89 88/140/100 89/137/99
f 83/89/96 84/93/95 92/153/102 93/152/101
f 84/93/95 85/170/52 91/169/51 92/153/102
f 77/78/92 78/82/91 98/83/106 99/79/105
f 78/82/91 79/161/10 97/160/9 98/83/106
f 80/171/43 81/86/94 107/87/111 108/167/44
f 81/86/94 82/81/93 106/80/112 107/87/111
f 100/84/108 101/91/107 110/75/114 111/72/113
f 101/91/107 102/159/40 109/157/39 110/75/114
f 3/176/13 86/66/98 113/67/115 114/158/14
f 86/66/98 87/63/97 112/62/116 113/67/115
f 94/64/104 95/70/103 116/71/118 117/65/117
f 95/70/103 96/168/50 115/164/49 116/71/118
f 103/166/46 104/92/110 119/77/119 120/165/47
f 104/92/110 105/85/109 118/73/120 119/77/119
f 4/31/12 5/174/1 90/138/4 3/32/13
s off
f 121/178/121 123/179/122 122/180/123
s 12
f 127/181/124 128/182/125 131/183/126 132/184/127
s 13
f 128/182/128 129/185/129 130/186/130 131/183/131
s 14
f 132/184/132 130/187/133 129/188/134 127/181/135
s 12
f 122/180/136 123/179/137 128/182/125 127/181/124
s 13
f 121/178/138 129/185/129 128/182/128 123/179/139
s 14
f 127/181/135 129/188/134 121/178/140 122/180/141
s 13
f 131/183/131 130/186/130 133/189/142 134/190/143
s 14
f 135/191/144 133/192/145 130/187/133 132/184/132
s 13
f 134/190/143 133/189/142 126/193/146 125/194/147
s 14
f 126/195/148 133/192/145 135/191/144 124/196/149
s off
f 136/197/150 138/198/151 137/199/152
s 15
f 139/200/153 140/201/154 143/202/155 144/203/156
s 16
f 140/201/157 141/204/158 142/205/159 143/202/160
s 17
f 144/203/161 142/206/162 141/207/163 139/200/164
s 15
f 145/208/165 146/209/166 140/201/154 139/200/153
s 16
f 146/209/167 147/210/168 141/204/158 140/201/157
s 17
f 139/200/164 141/207/163 147/211/169 145/208/170
s 15
f 137/199/171 138/198/172 146/209/166 145/208/165
s 16
f 136/197/173 147/210/168 146/209/167 138/198/174
s 17
f 145/208/170 147/211/169 136/197/175 137/199/176
