%YAML 1.1
%TAG !u! tag:unity3d.com,2011:
--- !u!114 &11400000
MonoBehaviour:
  m_ObjectHideFlags: 0
  m_CorrespondingSourceObject: {fileID: 0}
  m_PrefabInstance: {fileID: 0}
  m_PrefabAsset: {fileID: 0}
  m_GameObject: {fileID: 0}
  m_Enabled: 1
  m_EditorHideFlags: 0
  m_Script: {fileID: 11500000, guid: 4387d1d4b04c0482ea0e8e0ff3037ed0, type: 3}
  m_Name: Hat_Cowboy
  m_EditorClassIdentifier: 
  ID: cowboy
  Name: Cowboy Hat
  prefab: {fileID: 8810585053851870569, guid: 0f13ac7861e2a468a891f1b0e2c2589f, type: 3}
  Sprite: {fileID: 21300000, guid: 34e48cda1f7a34c00930c1e9524d629b, type: 3}
  MenuSpriteIfSelected: {fileID: 21300000, guid: 34e48cda1f7a34c00930c1e9524d629b, type: 3}
  Story: A deep freeze has come to the desert, turning your home and friends to ice!
