%YAML 1.1
%TAG !u! tag:unity3d.com,2011:
--- !u!1001 &5429345113950599285
PrefabInstance:
  m_ObjectHideFlags: 0
  serializedVersion: 2
  m_Modification:
    m_TransformParent: {fileID: 0}
    m_Modifications:
    - target: {fileID: 6486896204361626288, guid: 866248fbfe1ca7846b84953385dbe2d4, type: 3}
      propertyPath: Config.Speed
      value: 0.8
      objectReference: {fileID: 0}
    - target: {fileID: 6486896204361626288, guid: 866248fbfe1ca7846b84953385dbe2d4, type: 3}
      propertyPath: Config.Behavior
      value: 0
      objectReference: {fileID: 0}
    - target: {fileID: 6486896204361626288, guid: 866248fbfe1ca7846b84953385dbe2d4, type: 3}
      propertyPath: Config.AngleCurve.m_Curve.Array.size
      value: 2
      objectReference: {fileID: 0}
    - target: {fileID: 6486896204361626288, guid: 866248fbfe1ca7846b84953385dbe2d4, type: 3}
      propertyPath: Config.AngleCurve.m_Curve.Array.data[1].time
      value: 0.99902344
      objectReference: {fileID: 0}
    - target: {fileID: 6486896204361626288, guid: 866248fbfe1ca7846b84953385dbe2d4, type: 3}
      propertyPath: Config.AngleCurve.m_Curve.Array.data[1].value
      value: 360
      objectReference: {fileID: 0}
    - target: {fileID: 6486896204361626288, guid: 866248fbfe1ca7846b84953385dbe2d4, type: 3}
      propertyPath: Config.AngleCurve.m_Curve.Array.data[0].inSlope
      value: 200.38309
      objectReference: {fileID: 0}
    - target: {fileID: 6486896204361626288, guid: 866248fbfe1ca7846b84953385dbe2d4, type: 3}
      propertyPath: Config.AngleCurve.m_Curve.Array.data[1].inSlope
      value: 200.5207
      objectReference: {fileID: 0}
    - target: {fileID: 6486896204361626288, guid: 866248fbfe1ca7846b84953385dbe2d4, type: 3}
      propertyPath: Config.AngleCurve.m_Curve.Array.data[0].outSlope
      value: 200.38309
      objectReference: {fileID: 0}
    - target: {fileID: 6486896204361626288, guid: 866248fbfe1ca7846b84953385dbe2d4, type: 3}
      propertyPath: Config.AngleCurve.m_Curve.Array.data[1].inWeight
      value: 0.50371057
      objectReference: {fileID: 0}
    - target: {fileID: 6486896204361626288, guid: 866248fbfe1ca7846b84953385dbe2d4, type: 3}
      propertyPath: Config.AngleCurve.m_Curve.Array.data[1].outSlope
      value: 200.5207
      objectReference: {fileID: 0}
    - target: {fileID: 6486896204361626288, guid: 866248fbfe1ca7846b84953385dbe2d4, type: 3}
      propertyPath: Config.AngleCurve.m_Curve.Array.data[0].outWeight
      value: 0.5018553
      objectReference: {fileID: 0}
    - target: {fileID: 6486896204361626288, guid: 866248fbfe1ca7846b84953385dbe2d4, type: 3}
      propertyPath: Config.AngleCurve.m_Curve.Array.data[1].outWeight
      value: 0
      objectReference: {fileID: 0}
    - target: {fileID: 6486896204361626289, guid: 866248fbfe1ca7846b84953385dbe2d4, type: 3}
      propertyPath: m_Name
      value: Cat Enemy Meandering
      objectReference: {fileID: 0}
    - target: {fileID: 6486896204361626303, guid: 866248fbfe1ca7846b84953385dbe2d4, type: 3}
      propertyPath: m_RootOrder
      value: 0
      objectReference: {fileID: 0}
    - target: {fileID: 6486896204361626303, guid: 866248fbfe1ca7846b84953385dbe2d4, type: 3}
      propertyPath: m_LocalPosition.x
      value: 0
      objectReference: {fileID: 0}
    - target: {fileID: 6486896204361626303, guid: 866248fbfe1ca7846b84953385dbe2d4, type: 3}
      propertyPath: m_LocalPosition.y
      value: 0
      objectReference: {fileID: 0}
    - target: {fileID: 6486896204361626303, guid: 866248fbfe1ca7846b84953385dbe2d4, type: 3}
      propertyPath: m_LocalPosition.z
      value: 0
      objectReference: {fileID: 0}
    - target: {fileID: 6486896204361626303, guid: 866248fbfe1ca7846b84953385dbe2d4, type: 3}
      propertyPath: m_LocalRotation.w
      value: 1
      objectReference: {fileID: 0}
    - target: {fileID: 6486896204361626303, guid: 866248fbfe1ca7846b84953385dbe2d4, type: 3}
      propertyPath: m_LocalRotation.x
      value: 0
      objectReference: {fileID: 0}
    - target: {fileID: 6486896204361626303, guid: 866248fbfe1ca7846b84953385dbe2d4, type: 3}
      propertyPath: m_LocalRotation.y
      value: 0
      objectReference: {fileID: 0}
    - target: {fileID: 6486896204361626303, guid: 866248fbfe1ca7846b84953385dbe2d4, type: 3}
      propertyPath: m_LocalRotation.z
      value: 0
      objectReference: {fileID: 0}
    - target: {fileID: 6486896204361626303, guid: 866248fbfe1ca7846b84953385dbe2d4, type: 3}
      propertyPath: m_LocalEulerAnglesHint.x
      value: 0
      objectReference: {fileID: 0}
    - target: {fileID: 6486896204361626303, guid: 866248fbfe1ca7846b84953385dbe2d4, type: 3}
      propertyPath: m_LocalEulerAnglesHint.y
      value: 0
      objectReference: {fileID: 0}
    - target: {fileID: 6486896204361626303, guid: 866248fbfe1ca7846b84953385dbe2d4, type: 3}
      propertyPath: m_LocalEulerAnglesHint.z
      value: 0
      objectReference: {fileID: 0}
    m_RemovedComponents: []
  m_SourcePrefab: {fileID: 100100000, guid: 866248fbfe1ca7846b84953385dbe2d4, type: 3}
